Faye Harwell- Zombie Apocolapse Homework
…
random30

## # A tibble: 30 x 10
##       id first_name last_name gender   height   weight zombies_killed
##    <int>      <chr>     <chr>  <chr>    <dbl>    <dbl>          <int>
##  1   898       Sean    Romero   Male 69.87416 169.4200              5
##  2   778      Jason      Hart   Male 67.69585 143.8266              3
##  3   970     Eugene  Ferguson   Male 60.32218 104.5811              5
##  4    44      Shawn    Harris   Male 66.90534 132.5518              1
##  5   257      Aaron    Medina   Male 68.89152 154.1242              4
##  6   178     Cheryl     Clark Female 64.18962 143.4554              2
##  7   465       Paul       Fox   Male 74.34293 174.2580              3
##  8   398  Christina      West Female 67.40818 143.7683              2
##  9   997      Julie     Evans Female 66.48566 157.0878              3
## 10   309      Tammy    Porter Female 64.87039 123.6400              2
## # ... with 20 more rows, and 3 more variables: years_of_education <int>,
## #   major <chr>, age <dbl>
…
